<?xml version="1.0" encoding="UTF-8"?>
<model ref="r:6c38bc66-af27-4697-9d41-845ad1e17f34(org.iets3.core.expr.gencsharp.base.typesystem)">
  <persistence version="9" />
  <languages>
    <use id="7a5dda62-9140-4668-ab76-d5ed1746f2b2" name="jetbrains.mps.lang.typesystem" version="5" />
    <devkit ref="00000000-0000-4000-0000-1de82b3a4936(jetbrains.mps.devkit.aspect.typesystem)" />
  </languages>
  <imports />
  <registry />
</model>

