<?xml version="1.0" encoding="UTF-8"?>
<model ref="r:d79396c2-f9de-4fd9-add2-1c0f2055e783(org.iets3.core.expr.gencsharp.simpleTypes.typesystem)">
  <persistence version="9" />
  <languages>
    <use id="7a5dda62-9140-4668-ab76-d5ed1746f2b2" name="jetbrains.mps.lang.typesystem" version="5" />
    <devkit ref="00000000-0000-4000-0000-1de82b3a4936(jetbrains.mps.devkit.aspect.typesystem)" />
  </languages>
  <imports />
  <registry />
</model>

