<?xml version="1.0" encoding="UTF-8"?>
<model ref="r:0f7f49fa-f0fb-4878-a29b-404e6201a137(org.iets3.core.expr.gencsharp.tests.structure)">
  <persistence version="9" />
  <languages>
    <use id="c72da2b9-7cce-4447-8389-f407dc1158b7" name="jetbrains.mps.lang.structure" version="9" />
    <devkit ref="78434eb8-b0e5-444b-850d-e7c4ad2da9ab(jetbrains.mps.devkit.aspect.structure)" />
  </languages>
  <imports />
  <registry />
</model>

