<?xml version="1.0" encoding="UTF-8"?>
<model ref="r:6239d1b0-5938-4eed-b7a2-61692aee558c(gencsharpsandbox)">
  <persistence version="9" />
  <languages>
    <devkit ref="c4e521ab-b605-4ef9-a7c3-68075da058f0(org.iets3.core.expr.core.devkit)" />
    <devkit ref="79d31620-2d34-40bc-8b87-b764e10a007a(org.iets3.core.expr.gencsharp.devkit)" />
  </languages>
  <imports />
  <registry>
    <language id="2f7e2e35-6e74-4c43-9fa5-2465d68f5996" name="org.iets3.core.expr.collections">
      <concept id="5585772046587930249" name="org.iets3.core.expr.collections.structure.MaxOp" flags="ng" index="2$EC2t" />
      <concept id="1406572792884327605" name="org.iets3.core.expr.collections.structure.IndexOfOp" flags="ng" index="2_758P" />
      <concept id="75413091695536841" name="org.iets3.core.expr.collections.structure.IndexExpr" flags="ng" index="2GTG47" />
      <concept id="8872269265520081293" name="org.iets3.core.expr.collections.structure.SetLiteral" flags="ng" index="2TO1xI">
        <child id="8872269265520081294" name="elements" index="2TO1xH" />
      </concept>
      <concept id="3989687177013570767" name="org.iets3.core.expr.collections.structure.UpToTarget" flags="ng" index="1hzhIm">
        <child id="3989687177013570768" name="max" index="1hzhI9" />
      </concept>
      <concept id="7757419675865128281" name="org.iets3.core.expr.collections.structure.IMapOneArgOp" flags="ng" index="1idJ_1">
        <child id="7757419675865128346" name="arg" index="1idJA2" />
      </concept>
      <concept id="7554398283340640412" name="org.iets3.core.expr.collections.structure.MapOp" flags="ng" index="3iw6QE" />
      <concept id="7554398283340020764" name="org.iets3.core.expr.collections.structure.OneArgCollectionOp" flags="ng" index="3iAY4E">
        <child id="7554398283340020765" name="arg" index="3iAY4F" />
      </concept>
      <concept id="7554398283339853806" name="org.iets3.core.expr.collections.structure.LastOp" flags="ng" index="3iB7bo" />
      <concept id="7554398283339749509" name="org.iets3.core.expr.collections.structure.CollectionType" flags="ng" index="3iBWmN">
        <child id="7554398283339749510" name="baseType" index="3iBWmK" />
      </concept>
      <concept id="7554398283339759319" name="org.iets3.core.expr.collections.structure.ListLiteral" flags="ng" index="3iBYfx">
        <child id="7554398283339759320" name="elements" index="3iBYfI" />
      </concept>
      <concept id="7554398283339757344" name="org.iets3.core.expr.collections.structure.ListType" flags="ng" index="3iBYCm" />
      <concept id="5070313213695398904" name="org.iets3.core.expr.collections.structure.StringJoinOp" flags="ng" index="1k5sNT" />
      <concept id="8448265401163714133" name="org.iets3.core.expr.collections.structure.MapWithoutOp" flags="ng" index="1DE4Fa" />
      <concept id="8448265401163110902" name="org.iets3.core.expr.collections.structure.MapType" flags="ng" index="1DGDPD">
        <child id="8448265401163110905" name="valueType" index="1DGDPA" />
        <child id="8448265401163110903" name="keyType" index="1DGDPC" />
      </concept>
      <concept id="8448265401163111273" name="org.iets3.core.expr.collections.structure.KeyValuePair" flags="ng" index="1DGDZQ">
        <child id="8448265401163111276" name="val" index="1DGDZN" />
        <child id="8448265401163111274" name="key" index="1DGDZP" />
      </concept>
      <concept id="8448265401163111272" name="org.iets3.core.expr.collections.structure.MapLiteral" flags="ng" index="1DGDZR">
        <child id="8448265401163120790" name="elements" index="1DGOg9" />
      </concept>
      <concept id="531692237848496057" name="org.iets3.core.expr.collections.structure.ListPickOp" flags="ng" index="3LEzjW">
        <child id="531692237848499024" name="selectorList" index="3LEy0l" />
      </concept>
      <concept id="6414340278546763815" name="org.iets3.core.expr.collections.structure.AsSingletonList" flags="ng" index="3MhG1o" />
      <concept id="4931785860342338320" name="org.iets3.core.expr.collections.structure.FoldOp" flags="ng" index="1XzICc">
        <child id="4931785860342371144" name="combiner" index="1YsmDk" />
        <child id="4931785860342371141" name="seed" index="1YsmDp" />
      </concept>
      <concept id="4931785860342338319" name="org.iets3.core.expr.collections.structure.FoldLeftOp" flags="ng" index="1XzICj" />
    </language>
    <language id="7b68d745-a7b8-48b9-bd9c-05c0f8725a35" name="org.iets3.core.base">
      <concept id="229512757698888199" name="org.iets3.core.base.structure.IOptionallyNamed" flags="ng" index="pfQq$">
        <child id="229512757698888936" name="optionalName" index="pfQ1b" />
      </concept>
      <concept id="229512757698888202" name="org.iets3.core.base.structure.OptionalNameSpecifier" flags="ng" index="pfQqD">
        <property id="229512757698888203" name="optionalName" index="pfQqC" />
      </concept>
    </language>
    <language id="cfaa4966-b7d5-4b69-b66a-309a6e1a7290" name="org.iets3.core.expr.base">
      <concept id="7971844778466793051" name="org.iets3.core.expr.base.structure.AltOption" flags="ng" index="2fGnzd">
        <child id="7971844778466793072" name="then" index="2fGnzA" />
        <child id="7971844778466793070" name="when" index="2fGnzS" />
      </concept>
      <concept id="7971844778466793028" name="org.iets3.core.expr.base.structure.AlternativesExpression" flags="ng" index="2fGnzi">
        <child id="7971844778466793162" name="alternatives" index="2fGnxs" />
      </concept>
      <concept id="1019070541450016346" name="org.iets3.core.expr.base.structure.TupleValue" flags="ng" index="m5g4o">
        <child id="1019070541450016347" name="values" index="m5g4p" />
      </concept>
      <concept id="606861080870797309" name="org.iets3.core.expr.base.structure.IfElseSection" flags="ng" index="pf3Wd">
        <child id="606861080870797310" name="expr" index="pf3We" />
      </concept>
      <concept id="411710798114972602" name="org.iets3.core.expr.base.structure.FailExpr" flags="ng" index="qoPdK">
        <child id="7275867333401405429" name="type" index="4IRkZ" />
        <child id="411710798114972606" name="message" index="qoPdO" />
      </concept>
      <concept id="7089558164909884363" name="org.iets3.core.expr.base.structure.TryErrorClause" flags="ng" index="2zzUxt">
        <child id="7089558164909884398" name="expr" index="2zzUxS" />
        <child id="7089558164910923907" name="errorLiteral" index="2zBOGl" />
      </concept>
      <concept id="7089558164910719190" name="org.iets3.core.expr.base.structure.SuccessValueExpr" flags="ng" index="2zAAH0">
        <reference id="7089558164910719191" name="try" index="2zAAH1" />
      </concept>
      <concept id="7089558164905593724" name="org.iets3.core.expr.base.structure.IOptionallyTyped" flags="ng" index="2zM23E">
        <child id="7089558164905593725" name="type" index="2zM23F" />
      </concept>
      <concept id="7071042522334260296" name="org.iets3.core.expr.base.structure.ITyped" flags="ng" index="2_iKZX">
        <child id="8811147530085329321" name="type" index="2S399n" />
      </concept>
      <concept id="2807135271608265973" name="org.iets3.core.expr.base.structure.NoneLiteral" flags="ng" index="UmHTt" />
      <concept id="6481804410367607231" name="org.iets3.core.expr.base.structure.TrySuccessClause" flags="ng" index="2YtBXV">
        <child id="6481804410367607232" name="expr" index="2YtBW4" />
      </concept>
      <concept id="6481804410366698223" name="org.iets3.core.expr.base.structure.AttemptType" flags="ng" index="2Yx5KF">
        <child id="1206081519718117779" name="successType" index="2oiIPj" />
        <child id="1206081519718117781" name="errorLiterals" index="2oiIPl" />
      </concept>
      <concept id="6481804410367226920" name="org.iets3.core.expr.base.structure.TryExpression" flags="ng" index="2Yz4FG">
        <child id="7089558164909885123" name="errorClauses" index="2zzUPl" />
        <child id="6481804410367607310" name="successClause" index="2YtBNa" />
        <child id="6481804410367226948" name="expr" index="2Yz4E0" />
      </concept>
      <concept id="5115872837157187871" name="org.iets3.core.expr.base.structure.ParensExpression" flags="ng" index="30bsCy">
        <child id="5115872837157187954" name="expr" index="30bsDf" />
      </concept>
      <concept id="5115872837156802409" name="org.iets3.core.expr.base.structure.UnaryExpression" flags="ng" index="30czhk">
        <child id="5115872837156802411" name="expr" index="30czhm" />
      </concept>
      <concept id="5115872837156687890" name="org.iets3.core.expr.base.structure.LessExpression" flags="ng" index="30d6GJ" />
      <concept id="5115872837156652603" name="org.iets3.core.expr.base.structure.DivExpression" flags="ng" index="30dvO6" />
      <concept id="5115872837156652453" name="org.iets3.core.expr.base.structure.MinusExpression" flags="ng" index="30dvUo" />
      <concept id="5115872837156578671" name="org.iets3.core.expr.base.structure.MulExpression" flags="ng" index="30dDTi" />
      <concept id="5115872837156578546" name="org.iets3.core.expr.base.structure.PlusExpression" flags="ng" index="30dDZf" />
      <concept id="5115872837156576277" name="org.iets3.core.expr.base.structure.BinaryExpression" flags="ng" index="30dEsC">
        <child id="5115872837156576280" name="right" index="30dEs_" />
        <child id="5115872837156576278" name="left" index="30dEsF" />
      </concept>
      <concept id="6932772747669876272" name="org.iets3.core.expr.base.structure.DefaultValueExpression" flags="ng" index="15qgo_">
        <child id="6932772747669876273" name="type" index="15qgo$" />
      </concept>
      <concept id="7849560302565679722" name="org.iets3.core.expr.base.structure.IfExpression" flags="ng" index="39w5ZF">
        <child id="606861080870797304" name="elseSection" index="pf3W8" />
        <child id="7849560302565679723" name="condition" index="39w5ZE" />
        <child id="7849560302565679725" name="thenPart" index="39w5ZG" />
      </concept>
      <concept id="2245119349904068784" name="org.iets3.core.expr.base.structure.RangeTarget" flags="ng" index="1eiLin">
        <child id="2245119349904068815" name="max" index="1eiLjC" />
        <child id="2245119349904068814" name="min" index="1eiLjD" />
      </concept>
      <concept id="1919538606559981270" name="org.iets3.core.expr.base.structure.ErrorLiteral" flags="ng" index="1i17NB" />
      <concept id="1919538606560895472" name="org.iets3.core.expr.base.structure.ErrorExpression" flags="ng" index="1i5Bf1">
        <child id="1919538606560895473" name="error" index="1i5Bf0" />
      </concept>
      <concept id="3352322994211036342" name="org.iets3.core.expr.base.structure.OneOfTarget" flags="ng" index="1kPOiQ">
        <child id="3352322994211036351" name="values" index="1kPOiZ" />
      </concept>
      <concept id="9002563722476995145" name="org.iets3.core.expr.base.structure.DotExpression" flags="ng" index="1QScDb">
        <child id="9002563722476995147" name="target" index="1QScD9" />
      </concept>
    </language>
    <language id="92d2ea16-5a42-4fdf-a676-c7604efe3504" name="de.slisson.mps.richtext">
      <concept id="2557074442922380897" name="de.slisson.mps.richtext.structure.Text" flags="ng" index="19SGf9">
        <child id="2557074442922392302" name="words" index="19SJt6" />
      </concept>
      <concept id="2557074442922438156" name="de.slisson.mps.richtext.structure.Word" flags="ng" index="19SUe$">
        <property id="2557074442922438158" name="escapedValue" index="19SUeA" />
      </concept>
    </language>
    <language id="6b277d9a-d52d-416f-a209-1919bd737f50" name="org.iets3.core.expr.simpleTypes">
      <concept id="8293738266739942474" name="org.iets3.core.expr.simpleTypes.structure.StringInterpolationExpr" flags="ng" index="2206d8">
        <child id="8293738266739942475" name="text" index="2206d9" />
      </concept>
      <concept id="8293738266739943650" name="org.iets3.core.expr.simpleTypes.structure.InterpolExprWord" flags="ng" index="2206Zw">
        <child id="8293738266739943651" name="expr" index="2206Zx" />
      </concept>
      <concept id="1330041117646892924" name="org.iets3.core.expr.simpleTypes.structure.NumberPrecSpec" flags="ng" index="2gteS_">
        <property id="1330041117646892934" name="prec" index="2gteVv" />
      </concept>
      <concept id="1330041117646892901" name="org.iets3.core.expr.simpleTypes.structure.NumberRangeSpec" flags="ng" index="2gteSW">
        <property id="1330041117646892912" name="max" index="2gteSD" />
        <property id="1330041117646892911" name="min" index="2gteSQ" />
      </concept>
      <concept id="8219602584782245544" name="org.iets3.core.expr.simpleTypes.structure.NumberType" flags="ng" index="mLuIC">
        <child id="1330041117646892920" name="range" index="2gteSx" />
        <child id="1330041117646892937" name="prec" index="2gteVg" />
      </concept>
      <concept id="7425695345928358745" name="org.iets3.core.expr.simpleTypes.structure.TrueLiteral" flags="ng" index="2vmpnb" />
      <concept id="5115872837157252552" name="org.iets3.core.expr.simpleTypes.structure.StringLiteral" flags="ng" index="30bdrP">
        <property id="5115872837157252555" name="value" index="30bdrQ" />
      </concept>
      <concept id="5115872837157252551" name="org.iets3.core.expr.simpleTypes.structure.StringType" flags="ng" index="30bdrU" />
      <concept id="5115872837157054284" name="org.iets3.core.expr.simpleTypes.structure.RealType" flags="ng" index="30bXLL" />
      <concept id="5115872837157054169" name="org.iets3.core.expr.simpleTypes.structure.IntegerType" flags="ng" index="30bXR$" />
      <concept id="5115872837157054170" name="org.iets3.core.expr.simpleTypes.structure.NumberLiteral" flags="ng" index="30bXRB">
        <property id="5115872837157054173" name="value" index="30bXRw" />
      </concept>
      <concept id="5994308065090560488" name="org.iets3.core.expr.simpleTypes.structure.StringLengthTarget" flags="ng" index="1uMQU5" />
    </language>
    <language id="71934284-d7d1-45ee-a054-8c072591085f" name="org.iets3.core.expr.toplevel">
      <concept id="8293738266741050660" name="org.iets3.core.expr.toplevel.structure.ProjectOp" flags="ng" index="22cOCA">
        <child id="8293738266741050730" name="members" index="22cODC" />
      </concept>
      <concept id="8293738266741050664" name="org.iets3.core.expr.toplevel.structure.ProjectMember" flags="ng" index="22cOCE">
        <child id="8293738266741050670" name="expr" index="22cOCG" />
      </concept>
      <concept id="8293738266742524311" name="org.iets3.core.expr.toplevel.structure.ProjectIt" flags="ng" index="22msUl" />
      <concept id="7061117989422575313" name="org.iets3.core.expr.toplevel.structure.EnumLiteral" flags="ng" index="5mgYR" />
      <concept id="7061117989422575278" name="org.iets3.core.expr.toplevel.structure.EnumDeclaration" flags="ng" index="5mgZ8">
        <property id="7061117989424763681" name="qualified" index="5dF97" />
        <child id="7061117989422575348" name="literals" index="5mgYi" />
      </concept>
      <concept id="7061117989422577349" name="org.iets3.core.expr.toplevel.structure.EnumLiteralRef" flags="ng" index="5mhuz">
        <reference id="7061117989422577417" name="literal" index="5mhpJ" />
      </concept>
      <concept id="7089558164906249676" name="org.iets3.core.expr.toplevel.structure.Constant" flags="ng" index="2zPypq">
        <child id="7089558164906249715" name="value" index="2zPyp_" />
      </concept>
      <concept id="543569365052765011" name="org.iets3.core.expr.toplevel.structure.EmptyToplevelContent" flags="ng" index="_ixoA" />
      <concept id="543569365052711055" name="org.iets3.core.expr.toplevel.structure.Library" flags="ng" index="_iOnU">
        <child id="543569365052711058" name="contents" index="_iOnB" />
      </concept>
      <concept id="8811147530085329320" name="org.iets3.core.expr.toplevel.structure.RecordLiteral" flags="ng" index="2S399m">
        <child id="8811147530085329323" name="memberValues" index="2S399l" />
      </concept>
      <concept id="602952467877559919" name="org.iets3.core.expr.toplevel.structure.IRecordDeclaration" flags="ng" index="S5Q1W">
        <child id="602952467877562565" name="members" index="S5Trm" />
      </concept>
      <concept id="8811147530084018370" name="org.iets3.core.expr.toplevel.structure.RecordType" flags="ng" index="2Ss9cW">
        <reference id="8811147530084018371" name="record" index="2Ss9cX" />
      </concept>
      <concept id="8811147530084018361" name="org.iets3.core.expr.toplevel.structure.RecordMember" flags="ng" index="2Ss9d7" />
      <concept id="8811147530084018358" name="org.iets3.core.expr.toplevel.structure.RecordDeclaration" flags="ng" index="2Ss9d8" />
      <concept id="4790956042240570348" name="org.iets3.core.expr.toplevel.structure.FunctionCall" flags="ng" index="1af_rf" />
      <concept id="4790956042240148643" name="org.iets3.core.expr.toplevel.structure.Function" flags="ng" index="1aga60" />
      <concept id="1249392911699110134" name="org.iets3.core.expr.toplevel.structure.NewValueSetter" flags="ng" index="3vStjd">
        <reference id="1249392911699110135" name="member" index="3vStjc" />
        <child id="1249392911699110137" name="newValue" index="3vStj2" />
      </concept>
      <concept id="1249392911699110107" name="org.iets3.core.expr.toplevel.structure.RecordChangeTarget" flags="ng" index="3vStjw">
        <child id="1249392911699129399" name="setters" index="3vSgwc" />
      </concept>
    </language>
    <language id="ceab5195-25ea-4f22-9b92-103b95ca8c0c" name="jetbrains.mps.lang.core">
      <concept id="1133920641626" name="jetbrains.mps.lang.core.structure.BaseConcept" flags="ng" index="2VYdi">
        <property id="1193676396447" name="virtualPackage" index="3GE5qa" />
      </concept>
      <concept id="1169194658468" name="jetbrains.mps.lang.core.structure.INamedConcept" flags="ng" index="TrEIO">
        <property id="1169194664001" name="name" index="TrG5h" />
      </concept>
    </language>
    <language id="f3eafff0-30d2-46d6-9150-f0f3b880ce27" name="org.iets3.core.expr.path">
      <concept id="7814222126786013807" name="org.iets3.core.expr.path.structure.PathElement" flags="ng" index="3o_JK">
        <reference id="7814222126786013810" name="member" index="3o_JH" />
      </concept>
    </language>
    <language id="9464fa06-5ab9-409b-9274-64ab29588457" name="org.iets3.core.expr.lambda">
      <concept id="6100571306011111439" name="org.iets3.core.expr.lambda.structure.FunctionStyleExecOp" flags="ng" index="214yl8">
        <child id="6100571306011111493" name="args" index="214yk2" />
        <child id="6100571306011111520" name="fun" index="214ykB" />
      </concept>
      <concept id="4790956042240407469" name="org.iets3.core.expr.lambda.structure.ArgRef" flags="ng" index="1afdae">
        <reference id="4790956042240460422" name="arg" index="1afue_" />
      </concept>
      <concept id="4790956042240522396" name="org.iets3.core.expr.lambda.structure.IFunctionCall" flags="ng" index="1afhQZ">
        <reference id="4790956042240522408" name="function" index="1afhQb" />
      </concept>
      <concept id="4790956042240100911" name="org.iets3.core.expr.lambda.structure.IFunctionLike" flags="ng" index="1ahQWc">
        <property id="2861782275883660525" name="ext" index="1HeIcW" />
        <child id="4790956042240100927" name="args" index="1ahQWs" />
        <child id="4790956042240100950" name="body" index="1ahQXP" />
      </concept>
      <concept id="4790956042240100929" name="org.iets3.core.expr.lambda.structure.FunctionArgument" flags="ng" index="1ahQXy" />
      <concept id="7554398283340370581" name="org.iets3.core.expr.lambda.structure.LambdaArgRef" flags="ng" index="3ix4Yz">
        <reference id="7554398283340370582" name="arg" index="3ix4Yw" />
      </concept>
      <concept id="7554398283340318470" name="org.iets3.core.expr.lambda.structure.LambdaExpression" flags="ng" index="3ix9CK">
        <child id="7554398283340319555" name="expression" index="3ix9pP" />
        <child id="7554398283340318471" name="args" index="3ix9CL" />
      </concept>
      <concept id="7554398283340318478" name="org.iets3.core.expr.lambda.structure.LambdaArg" flags="ng" index="3ix9CS" />
      <concept id="7554398283340318473" name="org.iets3.core.expr.lambda.structure.IArgument" flags="ng" index="3ix9CZ">
        <child id="7554398283340318476" name="type" index="3ix9CU" />
      </concept>
      <concept id="7554398283340741814" name="org.iets3.core.expr.lambda.structure.ShortLambdaExpression" flags="ng" index="3izI60">
        <child id="7554398283340741815" name="expression" index="3izI61" />
      </concept>
      <concept id="7554398283340826520" name="org.iets3.core.expr.lambda.structure.ShortLambdaItExpression" flags="ng" index="3izPEI" />
    </language>
  </registry>
  <node concept="_iOnU" id="53kN_Tr27vM">
    <property role="TrG5h" value="test" />
    <property role="3GE5qa" value="blub" />
    <node concept="2Ss9d8" id="2Y7ZIggfRih" role="_iOnB">
      <property role="TrG5h" value="test2" />
      <node concept="2Ss9d7" id="2Y7ZIggfRiY" role="S5Trm">
        <property role="TrG5h" value="test3" />
        <node concept="30bXR$" id="2Y7ZIggfRj5" role="2S399n" />
      </node>
      <node concept="2Ss9d7" id="2Y7ZIggfRit" role="S5Trm">
        <property role="TrG5h" value="hello" />
        <node concept="30bXR$" id="2Y7ZIggfRjc" role="2S399n" />
      </node>
    </node>
    <node concept="5mgZ8" id="19T$JBK28P" role="_iOnB">
      <property role="TrG5h" value="color" />
      <property role="5dF97" value="true" />
      <node concept="5mgYR" id="19T$JBK2kT" role="5mgYi">
        <property role="TrG5h" value="red" />
      </node>
      <node concept="5mgYR" id="19T$JBK2kZ" role="5mgYi">
        <property role="TrG5h" value="blue" />
      </node>
      <node concept="5mgYR" id="19T$JBK2l8" role="5mgYi">
        <property role="TrG5h" value="green" />
      </node>
    </node>
    <node concept="5mgZ8" id="51aMOhiX_vo" role="_iOnB">
      <property role="TrG5h" value="bla3" />
      <node concept="5mgYR" id="51aMOhiX_HE" role="5mgYi">
        <property role="TrG5h" value="blub" />
      </node>
    </node>
    <node concept="1aga60" id="4Cu8QUFNOh2" role="_iOnB">
      <property role="1HeIcW" value="true" />
      <property role="TrG5h" value="bar" />
      <node concept="1ahQXy" id="4Cu8QUFNOmZ" role="1ahQWs">
        <property role="TrG5h" value="this" />
        <node concept="3iBYCm" id="4Cu8QUFNPgx" role="3ix9CU">
          <node concept="mLuIC" id="4Cu8QUFNPhr" role="3iBWmK" />
        </node>
      </node>
      <node concept="1QScDb" id="26UovjNuSes" role="1ahQXP">
        <node concept="3iw6QE" id="26UovjNuSfn" role="1QScD9">
          <node concept="3izI60" id="26UovjNuSfo" role="3iAY4F">
            <node concept="30dDTi" id="26UovjNuSkg" role="3izI61">
              <node concept="30bXRB" id="26UovjNuSks" role="30dEs_">
                <property role="30bXRw" value="2" />
              </node>
              <node concept="3izPEI" id="26UovjNuSfq" role="30dEsF" />
            </node>
          </node>
        </node>
        <node concept="1afdae" id="26UovjNuRV4" role="30czhm">
          <ref role="1afue_" node="4Cu8QUFNOmZ" resolve="this" />
        </node>
      </node>
    </node>
    <node concept="1aga60" id="1qqzbvY8ao2" role="_iOnB">
      <property role="TrG5h" value="blub" />
      <node concept="30bdrP" id="1qqzbvY8aop" role="1ahQXP">
        <property role="30bdrQ" value="hello" />
      </node>
    </node>
    <node concept="1aga60" id="1qqzbvY8Ktu" role="_iOnB">
      <property role="TrG5h" value="foo" />
      <node concept="30dDZf" id="1qqzbvY8KET" role="1ahQXP">
        <node concept="30dvO6" id="1qqzbvY8KEU" role="30dEsF">
          <node concept="30bXRB" id="1qqzbvY8KEV" role="30dEsF">
            <property role="30bXRw" value="10" />
          </node>
          <node concept="30bXRB" id="1qqzbvY8KEW" role="30dEs_">
            <property role="30bXRw" value="3" />
          </node>
        </node>
        <node concept="30dvO6" id="1qqzbvY8KEX" role="30dEs_">
          <node concept="30dvO6" id="1qqzbvY8KEY" role="30dEsF">
            <node concept="30bXRB" id="1qqzbvY8KEZ" role="30dEsF">
              <property role="30bXRw" value="2" />
            </node>
            <node concept="30bXRB" id="1qqzbvY8KF0" role="30dEs_">
              <property role="30bXRw" value="2" />
            </node>
          </node>
          <node concept="30bXRB" id="1qqzbvY8KHf" role="30dEs_">
            <property role="30bXRw" value="3" />
          </node>
        </node>
      </node>
    </node>
    <node concept="1aga60" id="2Y7ZIggjgQY" role="_iOnB">
      <property role="TrG5h" value="bla" />
      <node concept="2206d8" id="1qqzbvY89ZS" role="1ahQXP">
        <node concept="19SGf9" id="1qqzbvY89ZT" role="2206d9">
          <node concept="19SUe$" id="1qqzbvY89ZU" role="19SJt6">
            <property role="19SUeA" value="hello this is interpolation " />
          </node>
          <node concept="2206Zw" id="1qqzbvY8aoJ" role="19SJt6">
            <node concept="30bdrP" id="1qqzbvY8Ks$" role="2206Zx">
              <property role="30bdrQ" value="test" />
            </node>
          </node>
          <node concept="19SUe$" id="1qqzbvY8aoM" role="19SJt6" />
        </node>
      </node>
    </node>
    <node concept="1aga60" id="51aMOhiX$en" role="_iOnB">
      <property role="TrG5h" value="bl2" />
      <node concept="5mhuz" id="51aMOhiX$sr" role="1ahQXP">
        <ref role="5mhpJ" node="19T$JBK2kZ" resolve="blue" />
      </node>
    </node>
    <node concept="_ixoA" id="51aMOhiXzXP" role="_iOnB" />
    <node concept="1aga60" id="1qqzbvYcOnU" role="_iOnB">
      <property role="TrG5h" value="a" />
      <node concept="1QScDb" id="1qqzbvYcOr6" role="1ahQXP">
        <node concept="1kPOiQ" id="1qqzbvYcOrB" role="1QScD9">
          <node concept="30bXRB" id="1qqzbvYdeOm" role="1kPOiZ">
            <property role="30bXRw" value="10" />
          </node>
          <node concept="30bXRB" id="1qqzbvYdeQx" role="1kPOiZ">
            <property role="30bXRw" value="123" />
          </node>
          <node concept="30bXRB" id="1qqzbvYdeSr" role="1kPOiZ">
            <property role="30bXRw" value="132" />
          </node>
        </node>
        <node concept="30bXRB" id="1qqzbvYdeUY" role="30czhm">
          <property role="30bXRw" value="123" />
        </node>
      </node>
    </node>
    <node concept="_ixoA" id="1qqzbvYklIj" role="_iOnB" />
    <node concept="1aga60" id="1qqzbvYdDYY" role="_iOnB">
      <property role="TrG5h" value="b" />
      <node concept="1QScDb" id="1qqzbvYdDZQ" role="1ahQXP">
        <node concept="1kPOiQ" id="1qqzbvYdE0n" role="1QScD9">
          <node concept="30bdrP" id="1qqzbvYdE10" role="1kPOiZ">
            <property role="30bdrQ" value="hello" />
          </node>
          <node concept="30bdrP" id="1qqzbvYdE2G" role="1kPOiZ">
            <property role="30bdrQ" value="blub" />
          </node>
        </node>
        <node concept="30bdrP" id="1qqzbvYdDZE" role="30czhm" />
      </node>
    </node>
    <node concept="1aga60" id="1qqzbvYe6E6" role="_iOnB">
      <property role="TrG5h" value="c" />
      <node concept="1QScDb" id="1qqzbvYe6H6" role="1ahQXP">
        <node concept="1eiLin" id="1qqzbvYe6LZ" role="1QScD9">
          <node concept="30bXRB" id="1qqzbvYe6Xk" role="1eiLjC">
            <property role="30bXRw" value="10" />
          </node>
          <node concept="30dvUo" id="1qqzbvYe7rh" role="1eiLjD">
            <node concept="30bXRB" id="1qqzbvYe7ru" role="30dEs_">
              <property role="30bXRw" value="2" />
            </node>
            <node concept="30bXRB" id="1qqzbvYe7kq" role="30dEsF">
              <property role="30bXRw" value="2" />
            </node>
          </node>
        </node>
        <node concept="30bXRB" id="1qqzbvYfkE$" role="30czhm">
          <property role="30bXRw" value="12" />
        </node>
      </node>
    </node>
    <node concept="1aga60" id="76kwQL8RTvR" role="_iOnB">
      <property role="TrG5h" value="d" />
      <node concept="1QScDb" id="76kwQL91P9O" role="1ahQXP">
        <node concept="2$EC2t" id="76kwQL91Pho" role="1QScD9" />
        <node concept="3iBYfx" id="76kwQL8S5sf" role="30czhm">
          <node concept="30bXRB" id="76kwQL8S5sp" role="3iBYfI">
            <property role="30bXRw" value="1" />
          </node>
          <node concept="30bXRB" id="76kwQL8S5tL" role="3iBYfI">
            <property role="30bXRw" value="2" />
          </node>
          <node concept="30bXRB" id="76kwQL8S5vu" role="3iBYfI">
            <property role="30bXRw" value="3" />
          </node>
        </node>
      </node>
    </node>
    <node concept="1aga60" id="76kwQL9356p" role="_iOnB">
      <property role="TrG5h" value="e" />
      <node concept="1QScDb" id="76kwQL93kkH" role="1ahQXP">
        <node concept="1uMQU5" id="76kwQL93km4" role="1QScD9" />
        <node concept="30bdrP" id="76kwQL93kkf" role="30czhm">
          <property role="30bdrQ" value="blub" />
        </node>
      </node>
    </node>
    <node concept="_ixoA" id="4Cu8QUFNWBo" role="_iOnB" />
    <node concept="1aga60" id="4vUQC5KeBUc" role="_iOnB">
      <property role="TrG5h" value="f" />
      <node concept="15qgo_" id="4vUQC5KeBZS" role="1ahQXP">
        <node concept="1DGDPD" id="4vUQC5KeC0r" role="15qgo$">
          <node concept="30bXR$" id="4vUQC5KeC18" role="1DGDPC" />
          <node concept="30bdrU" id="4vUQC5KeC1H" role="1DGDPA" />
        </node>
      </node>
    </node>
    <node concept="1aga60" id="4vUQC5KmVwb" role="_iOnB">
      <property role="TrG5h" value="g" />
      <node concept="1QScDb" id="1W$eEYMHpfv" role="1ahQXP">
        <node concept="3iBYfx" id="4vUQC5KmV_L" role="30czhm">
          <node concept="30bXRB" id="4vUQC5KmV_W" role="3iBYfI">
            <property role="30bXRw" value="1" />
          </node>
          <node concept="30bXRB" id="4vUQC5KmVA7" role="3iBYfI">
            <property role="30bXRw" value="2" />
          </node>
          <node concept="30bXRB" id="4vUQC5KmVBO" role="3iBYfI">
            <property role="30bXRw" value="3" />
          </node>
        </node>
        <node concept="3iB7bo" id="1W$eEYMJdaB" role="1QScD9" />
      </node>
    </node>
    <node concept="1aga60" id="1W$eEYMNcEs" role="_iOnB">
      <property role="TrG5h" value="h" />
      <node concept="1QScDb" id="1W$eEYMNcEt" role="1ahQXP">
        <node concept="3iBYfx" id="1W$eEYMNcEu" role="30czhm">
          <node concept="30bXRB" id="1W$eEYMNcEv" role="3iBYfI">
            <property role="30bXRw" value="1" />
          </node>
          <node concept="30bXRB" id="1W$eEYMNcEw" role="3iBYfI">
            <property role="30bXRw" value="2" />
          </node>
          <node concept="30bXRB" id="1W$eEYMNcEx" role="3iBYfI">
            <property role="30bXRw" value="3" />
          </node>
        </node>
        <node concept="2_758P" id="1W$eEYMNd6T" role="1QScD9">
          <node concept="30bXRB" id="1W$eEYMNdbq" role="3iAY4F">
            <property role="30bXRw" value="2" />
          </node>
        </node>
      </node>
    </node>
    <node concept="1aga60" id="1W$eEYMOr8m" role="_iOnB">
      <property role="TrG5h" value="i" />
      <node concept="1QScDb" id="1W$eEYMOtoV" role="1ahQXP">
        <node concept="30bXRB" id="1W$eEYMOtoW" role="30czhm">
          <property role="30bXRw" value="10" />
        </node>
        <node concept="1hzhIm" id="1W$eEYMOsVp" role="1QScD9">
          <node concept="30bXRB" id="1W$eEYMOt7_" role="1hzhI9">
            <property role="30bXRw" value="13" />
          </node>
        </node>
      </node>
    </node>
    <node concept="1aga60" id="1W$eEYMPgxp" role="_iOnB">
      <property role="TrG5h" value="j" />
      <node concept="1QScDb" id="1W$eEYMPgSv" role="1ahQXP">
        <node concept="3LEzjW" id="1W$eEYMPh8j" role="1QScD9">
          <node concept="3iBYfx" id="1W$eEYMPhci" role="3LEy0l">
            <node concept="30bXRB" id="1W$eEYMPhgb" role="3iBYfI">
              <property role="30bXRw" value="0" />
            </node>
            <node concept="30bXRB" id="1W$eEYMPhpw" role="3iBYfI">
              <property role="30bXRw" value="3" />
            </node>
          </node>
        </node>
        <node concept="3iBYfx" id="1W$eEYMPgHd" role="30czhm">
          <node concept="30bXRB" id="1W$eEYMPgHo" role="3iBYfI">
            <property role="30bXRw" value="1" />
          </node>
          <node concept="30bXRB" id="1W$eEYMPgIK" role="3iBYfI">
            <property role="30bXRw" value="2" />
          </node>
          <node concept="30bXRB" id="1W$eEYMPgJC" role="3iBYfI">
            <property role="30bXRw" value="3" />
          </node>
          <node concept="30bXRB" id="1W$eEYMPgQh" role="3iBYfI">
            <property role="30bXRw" value="4" />
          </node>
        </node>
      </node>
    </node>
    <node concept="1aga60" id="4k$ogzrS1YK" role="_iOnB">
      <property role="TrG5h" value="k" />
      <node concept="1QScDb" id="4k$ogzrS2fH" role="1ahQXP">
        <node concept="3MhG1o" id="4k$ogzrS2Vg" role="1QScD9" />
        <node concept="30bsCy" id="4k$ogzrS2aT" role="30czhm">
          <node concept="30bXRB" id="4k$ogzrS2aU" role="30bsDf">
            <property role="30bXRw" value="1.0" />
          </node>
        </node>
      </node>
    </node>
    <node concept="1aga60" id="4k$ogzrUgQ7" role="_iOnB">
      <property role="TrG5h" value="l" />
      <node concept="1QScDb" id="4k$ogzrUhbu" role="1ahQXP">
        <node concept="1XzICj" id="4k$ogzrUhri" role="1QScD9">
          <node concept="3ix9CK" id="4k$ogzrUhrj" role="1YsmDk">
            <node concept="3ix9CS" id="4k$ogzrUhrk" role="3ix9CL">
              <property role="TrG5h" value="seed" />
              <node concept="mLuIC" id="3ns5_b5iGUH" role="3ix9CU">
                <node concept="2gteSW" id="3ns5_b5iH28" role="2gteSx">
                  <property role="2gteSQ" value="1" />
                  <property role="2gteSD" value="4" />
                </node>
              </node>
            </node>
            <node concept="3ix9CS" id="4k$ogzrUhrl" role="3ix9CL">
              <property role="TrG5h" value="current" />
              <node concept="mLuIC" id="3ns5_b5iHFZ" role="3ix9CU">
                <node concept="2gteSW" id="3ns5_b5iHNq" role="2gteSx">
                  <property role="2gteSQ" value="1" />
                  <property role="2gteSD" value="4" />
                </node>
              </node>
            </node>
            <node concept="30dDZf" id="3tcPhB37jKS" role="3ix9pP">
              <node concept="30dDZf" id="3tcPhB37jKT" role="30dEsF">
                <node concept="3ix4Yz" id="4k$ogzrUhzN" role="30dEsF">
                  <ref role="3ix4Yw" node="4k$ogzrUhrk" resolve="seed" />
                </node>
                <node concept="3ix4Yz" id="4k$ogzrUhM6" role="30dEs_">
                  <ref role="3ix4Yw" node="4k$ogzrUhrl" resolve="current" />
                </node>
              </node>
              <node concept="2GTG47" id="3tcPhB37jTa" role="30dEs_" />
            </node>
          </node>
          <node concept="30bXRB" id="4k$ogzrUhTs" role="1YsmDp">
            <property role="30bXRw" value="1" />
          </node>
        </node>
        <node concept="3iBYfx" id="4k$ogzrUh02" role="30czhm">
          <node concept="30bXRB" id="4k$ogzrUh0d" role="3iBYfI">
            <property role="30bXRw" value="1" />
          </node>
          <node concept="30bXRB" id="4k$ogzrUh5o" role="3iBYfI">
            <property role="30bXRw" value="2" />
          </node>
          <node concept="30bXRB" id="4k$ogzrUh6g" role="3iBYfI">
            <property role="30bXRw" value="3" />
          </node>
          <node concept="30bXRB" id="4k$ogzrUh9g" role="3iBYfI">
            <property role="30bXRw" value="4" />
          </node>
        </node>
      </node>
    </node>
    <node concept="1aga60" id="3ns5_b5jwmp" role="_iOnB">
      <property role="TrG5h" value="m" />
      <node concept="1QScDb" id="3ns5_b5jwAP" role="1ahQXP">
        <node concept="1k5sNT" id="3ns5_b5jwDB" role="1QScD9">
          <node concept="30bdrP" id="3ns5_b5jwH1" role="3iAY4F">
            <property role="30bdrQ" value=", " />
          </node>
        </node>
        <node concept="3iBYfx" id="3ns5_b5jwzc" role="30czhm">
          <node concept="30bdrP" id="3ns5_b5jwzl" role="3iBYfI">
            <property role="30bdrQ" value="a" />
          </node>
          <node concept="30bdrP" id="3ns5_b5jw$$" role="3iBYfI">
            <property role="30bdrQ" value="b" />
          </node>
          <node concept="30bdrP" id="3ns5_b5jwA5" role="3iBYfI">
            <property role="30bdrQ" value="c" />
          </node>
        </node>
      </node>
    </node>
    <node concept="1aga60" id="2RygT4B0SpF" role="_iOnB">
      <property role="TrG5h" value="n" />
      <node concept="39w5ZF" id="kFBfAaozCD" role="1ahQXP">
        <node concept="pf3Wd" id="kFBfAaozCE" role="pf3W8">
          <node concept="UmHTt" id="kFBfAaozJ$" role="pf3We" />
        </node>
        <node concept="2vmpnb" id="kFBfAaozD8" role="39w5ZE" />
        <node concept="m5g4o" id="kFBfAaozDp" role="39w5ZG">
          <node concept="30bdrP" id="kFBfAaozDD" role="m5g4p">
            <property role="30bdrQ" value="a" />
          </node>
          <node concept="30bXRB" id="kFBfAaozFc" role="m5g4p">
            <property role="30bXRw" value="1" />
          </node>
        </node>
      </node>
    </node>
    <node concept="2zPypq" id="kFBfAar1UZ" role="_iOnB">
      <property role="TrG5h" value="p" />
      <node concept="30dDZf" id="kFBfAar2jd" role="2zPyp_">
        <node concept="30bXRB" id="kFBfAar28r" role="30dEsF">
          <property role="30bXRw" value="13" />
        </node>
        <node concept="1af_rf" id="kFBfAar2pj" role="30dEs_">
          <ref role="1afhQb" node="1qqzbvY8Ktu" resolve="foo" />
        </node>
      </node>
    </node>
    <node concept="1aga60" id="19T$JBAKWn" role="_iOnB">
      <property role="TrG5h" value="q" />
      <node concept="3ix9CK" id="19T$JBAL9t" role="1ahQXP">
        <node concept="3ix9CS" id="19T$JBAL9u" role="3ix9CL">
          <property role="TrG5h" value="it" />
          <node concept="30bXR$" id="19T$JBAL9T" role="3ix9CU" />
        </node>
        <node concept="30dDZf" id="19T$JBALaT" role="3ix9pP">
          <node concept="30bXRB" id="19T$JBALb6" role="30dEs_">
            <property role="30bXRw" value="10" />
          </node>
          <node concept="3ix4Yz" id="19T$JBALam" role="30dEsF">
            <ref role="3ix4Yw" node="19T$JBAL9u" resolve="it" />
          </node>
        </node>
      </node>
    </node>
    <node concept="1aga60" id="19T$JBALps" role="_iOnB">
      <property role="TrG5h" value="r" />
      <node concept="214yl8" id="19T$JBALY9" role="1ahQXP">
        <node concept="3ix9CK" id="19T$JBALQ6" role="214ykB">
          <node concept="3ix9CS" id="19T$JBALQ7" role="3ix9CL">
            <property role="TrG5h" value="it" />
            <node concept="30bXR$" id="19T$JBALRw" role="3ix9CU" />
          </node>
          <node concept="30dDZf" id="19T$JBALUH" role="3ix9pP">
            <node concept="30bXRB" id="19T$JBALW5" role="30dEs_">
              <property role="30bXRw" value="10" />
            </node>
            <node concept="3ix4Yz" id="19T$JBALSV" role="30dEsF">
              <ref role="3ix4Yw" node="19T$JBALQ7" resolve="it" />
            </node>
          </node>
        </node>
        <node concept="30bXRB" id="19T$JBAM0t" role="214yk2">
          <property role="30bXRw" value="10" />
        </node>
      </node>
    </node>
    <node concept="1aga60" id="19T$JBF79P" role="_iOnB">
      <property role="TrG5h" value="s" />
      <node concept="1QScDb" id="19T$JBF9cn" role="1ahQXP">
        <node concept="3o_JK" id="19T$JBF9dJ" role="1QScD9">
          <ref role="3o_JH" node="2Y7ZIggfRit" resolve="hello" />
        </node>
        <node concept="2S399m" id="19T$JBF99x" role="30czhm">
          <node concept="30bXRB" id="19T$JBF9ap" role="2S399l">
            <property role="30bXRw" value="10" />
          </node>
          <node concept="30bXRB" id="19T$JBF9bd" role="2S399l">
            <property role="30bXRw" value="20" />
          </node>
          <node concept="2Ss9cW" id="19T$JBF99B" role="2S399n">
            <ref role="2Ss9cX" node="2Y7ZIggfRih" resolve="test2" />
          </node>
        </node>
      </node>
    </node>
    <node concept="1aga60" id="19T$JBK2$0" role="_iOnB">
      <property role="TrG5h" value="t" />
      <node concept="5mhuz" id="19T$JBK2YD" role="1ahQXP">
        <ref role="5mhpJ" node="19T$JBK2kT" resolve="red" />
      </node>
    </node>
    <node concept="1aga60" id="4ejLsrQtxB_" role="_iOnB">
      <property role="TrG5h" value="u" />
      <node concept="30bsCy" id="4ejLsrQtyx9" role="1ahQXP">
        <node concept="2fGnzi" id="4ejLsrQtxVG" role="30bsDf">
          <node concept="2fGnzd" id="4ejLsrQtxVH" role="2fGnxs">
            <node concept="30d6GJ" id="4ejLsrQtxVJ" role="2fGnzS">
              <node concept="30bXRB" id="4ejLsrQtxVK" role="30dEs_">
                <property role="30bXRw" value="2" />
              </node>
              <node concept="30bXRB" id="4ejLsrQtxVL" role="30dEsF">
                <property role="30bXRw" value="1" />
              </node>
            </node>
            <node concept="30bdrP" id="54c1CflVfi3" role="2fGnzA">
              <property role="30bdrQ" value="bla" />
            </node>
          </node>
          <node concept="2fGnzd" id="4ejLsrQtxVM" role="2fGnxs">
            <node concept="30d6GJ" id="4ejLsrQtxVN" role="2fGnzS">
              <node concept="30bXRB" id="4ejLsrQtxVO" role="30dEs_">
                <property role="30bXRw" value="1" />
              </node>
              <node concept="30bXRB" id="4ejLsrQtxVP" role="30dEsF">
                <property role="30bXRw" value="2" />
              </node>
            </node>
            <node concept="1i5Bf1" id="4ejLsrQtxVQ" role="2fGnzA">
              <node concept="1i17NB" id="4ejLsrQtxVR" role="1i5Bf0">
                <property role="TrG5h" value="blub" />
              </node>
            </node>
          </node>
          <node concept="2fGnzd" id="4ejLsrQtxVS" role="2fGnxs">
            <node concept="30d6GJ" id="4ejLsrQtxVT" role="2fGnzS">
              <node concept="30bXRB" id="4ejLsrQtxVU" role="30dEs_">
                <property role="30bXRw" value="3" />
              </node>
              <node concept="30bXRB" id="4ejLsrQtxVV" role="30dEsF">
                <property role="30bXRw" value="1" />
              </node>
            </node>
            <node concept="1i5Bf1" id="4ejLsrQtxVW" role="2fGnzA">
              <node concept="1i17NB" id="4ejLsrQtxVX" role="1i5Bf0">
                <property role="TrG5h" value="yes" />
              </node>
            </node>
          </node>
        </node>
      </node>
    </node>
    <node concept="1aga60" id="6c02FvVKl5h" role="_iOnB">
      <property role="TrG5h" value="v" />
      <node concept="2Yz4FG" id="3tcPhB34le2" role="1ahQXP">
        <node concept="2YtBXV" id="3tcPhB34le3" role="2YtBNa">
          <node concept="2zAAH0" id="3tcPhB34zm3" role="2YtBW4">
            <ref role="2zAAH1" node="3tcPhB34le2" resolve="op" />
          </node>
        </node>
        <node concept="1af_rf" id="3tcPhB34lie" role="2Yz4E0">
          <ref role="1afhQb" node="4ejLsrQtxB_" resolve="u" />
        </node>
        <node concept="2zzUxt" id="3tcPhB34n2S" role="2zzUPl">
          <node concept="1i17NB" id="3tcPhB34n2R" role="2zBOGl">
            <property role="TrG5h" value="blub" />
          </node>
          <node concept="30bdrP" id="3tcPhB34nm1" role="2zzUxS">
            <property role="30bdrQ" value="bla2" />
          </node>
        </node>
        <node concept="2zzUxt" id="3tcPhB34q1f" role="2zzUPl">
          <node concept="30bdrP" id="3tcPhB34q6o" role="2zzUxS">
            <property role="30bdrQ" value="yes" />
          </node>
        </node>
        <node concept="pfQqD" id="3tcPhB34z0I" role="pfQ1b">
          <property role="pfQqC" value="op" />
        </node>
      </node>
    </node>
    <node concept="1aga60" id="54c1CflRWQ5" role="_iOnB">
      <property role="TrG5h" value="y" />
      <node concept="qoPdK" id="54c1CflRX5Q" role="1ahQXP">
        <node concept="30bdrP" id="54c1CflRXBw" role="qoPdO">
          <property role="30bdrQ" value="bla" />
        </node>
        <node concept="30bdrU" id="54c1CflRXOD" role="4IRkZ" />
      </node>
    </node>
    <node concept="1aga60" id="54c1CflVkUB" role="_iOnB">
      <property role="TrG5h" value="ac" />
      <node concept="2fGnzi" id="54c1CflVlaE" role="1ahQXP">
        <node concept="2fGnzd" id="54c1CflVlaF" role="2fGnxs">
          <node concept="30d6GJ" id="54c1CflVlaG" role="2fGnzS">
            <node concept="30bXRB" id="54c1CflVlaH" role="30dEs_">
              <property role="30bXRw" value="2" />
            </node>
            <node concept="30bXRB" id="54c1CflVlaI" role="30dEsF">
              <property role="30bXRw" value="1" />
            </node>
          </node>
          <node concept="30bXRB" id="54c1CflVliy" role="2fGnzA">
            <property role="30bXRw" value="13" />
          </node>
        </node>
        <node concept="2fGnzd" id="54c1CflVlaK" role="2fGnxs">
          <node concept="30d6GJ" id="54c1CflVlaL" role="2fGnzS">
            <node concept="30bXRB" id="54c1CflVlaM" role="30dEs_">
              <property role="30bXRw" value="1" />
            </node>
            <node concept="30bXRB" id="54c1CflVlaN" role="30dEsF">
              <property role="30bXRw" value="2" />
            </node>
          </node>
          <node concept="1i5Bf1" id="54c1CflVlaO" role="2fGnzA">
            <node concept="1i17NB" id="54c1CflVlaP" role="1i5Bf0">
              <property role="TrG5h" value="blub" />
            </node>
          </node>
        </node>
        <node concept="2fGnzd" id="54c1CflVlaQ" role="2fGnxs">
          <node concept="30d6GJ" id="54c1CflVlaR" role="2fGnzS">
            <node concept="30bXRB" id="54c1CflVlaS" role="30dEs_">
              <property role="30bXRw" value="3" />
            </node>
            <node concept="30bXRB" id="54c1CflVlaT" role="30dEsF">
              <property role="30bXRw" value="1" />
            </node>
          </node>
          <node concept="1i5Bf1" id="54c1CflVlaU" role="2fGnzA">
            <node concept="1i17NB" id="54c1CflVlaV" role="1i5Bf0">
              <property role="TrG5h" value="yes" />
            </node>
          </node>
        </node>
      </node>
    </node>
    <node concept="1aga60" id="54c1CflVt1A" role="_iOnB">
      <property role="TrG5h" value="ab" />
      <node concept="30bXRB" id="54c1CflVtfn" role="1ahQXP">
        <property role="30bXRw" value="12" />
      </node>
    </node>
    <node concept="1aga60" id="54c1CflVeM4" role="_iOnB">
      <property role="1HeIcW" value="true" />
      <property role="TrG5h" value="z" />
      <node concept="1ahQXy" id="54c1CflVf1Y" role="1ahQWs">
        <property role="TrG5h" value="self" />
        <node concept="2Yx5KF" id="54c1CflVf2t" role="3ix9CU">
          <node concept="1i17NB" id="54c1CflVfyZ" role="2oiIPl">
            <property role="TrG5h" value="blub" />
          </node>
          <node concept="1i17NB" id="54c1CflVfz$" role="2oiIPl">
            <property role="TrG5h" value="yes" />
          </node>
          <node concept="30bXR$" id="54c1CflVk$A" role="2oiIPj" />
        </node>
      </node>
      <node concept="30bdrP" id="54c1CflVfAx" role="1ahQXP">
        <property role="30bdrQ" value="yes" />
      </node>
    </node>
    <node concept="1aga60" id="54c1CflVqdw" role="_iOnB">
      <property role="1HeIcW" value="true" />
      <property role="TrG5h" value="ad" />
      <node concept="30bXRB" id="54c1CflVqrF" role="1ahQXP">
        <property role="30bXRw" value="1" />
      </node>
      <node concept="1ahQXy" id="54c1CflVqrb" role="1ahQWs">
        <property role="TrG5h" value="self" />
        <node concept="2Yx5KF" id="54c1CflVrMc" role="3ix9CU">
          <node concept="1i17NB" id="54c1CflVrMd" role="2oiIPl">
            <property role="TrG5h" value="blub" />
          </node>
          <node concept="1i17NB" id="54c1CflVrMe" role="2oiIPl">
            <property role="TrG5h" value="yes" />
          </node>
          <node concept="30bXR$" id="54c1CflVrMf" role="2oiIPj" />
        </node>
      </node>
    </node>
    <node concept="1aga60" id="2hT7BxDaUJA" role="_iOnB">
      <property role="TrG5h" value="ae" />
      <node concept="1DGDZR" id="2hT7BxDb1ct" role="1ahQXP">
        <node concept="1DGDZQ" id="2hT7BxDb1gB" role="1DGOg9">
          <node concept="30bXRB" id="2hT7BxDb1kX" role="1DGDZP">
            <property role="30bXRw" value="1" />
          </node>
          <node concept="30bXRB" id="2hT7BxDb1pp" role="1DGDZN">
            <property role="30bXRw" value="1" />
          </node>
        </node>
        <node concept="1DGDZQ" id="2hT7BxDb1wm" role="1DGOg9">
          <node concept="30bXRB" id="2hT7BxDb1Ai" role="1DGDZP">
            <property role="30bXRw" value="2" />
          </node>
          <node concept="30bXRB" id="2hT7BxDb1Ms" role="1DGDZN">
            <property role="30bXRw" value="2" />
          </node>
        </node>
        <node concept="1DGDZQ" id="2hT7BxDb1Gd" role="1DGOg9">
          <node concept="30bXRB" id="2hT7BxDb1Wp" role="1DGDZP">
            <property role="30bXRw" value="3" />
          </node>
          <node concept="30bXRB" id="2hT7BxDb23V" role="1DGDZN">
            <property role="30bXRw" value="3" />
          </node>
        </node>
      </node>
      <node concept="1DGDPD" id="2hT7BxDgpR6" role="2zM23F">
        <node concept="30bXR$" id="2hT7BxDgpZC" role="1DGDPC" />
        <node concept="30bXR$" id="2hT7BxDgq86" role="1DGDPA" />
      </node>
    </node>
    <node concept="1aga60" id="2hT7BxDg9Ox" role="_iOnB">
      <property role="TrG5h" value="af" />
      <node concept="1QScDb" id="2hT7BxDglUI" role="1ahQXP">
        <node concept="1DE4Fa" id="2hT7BxDgm8d" role="1QScD9">
          <node concept="30bXRB" id="2hT7BxDgmq3" role="1idJA2">
            <property role="30bXRw" value="1" />
          </node>
        </node>
        <node concept="1af_rf" id="2hT7BxDglTk" role="30czhm">
          <ref role="1afhQb" node="2hT7BxDaUJA" resolve="ae" />
        </node>
      </node>
    </node>
    <node concept="1aga60" id="51aMOhiYh_W" role="_iOnB">
      <property role="TrG5h" value="ag" />
      <node concept="1QScDb" id="26UovjNuorT" role="1ahQXP">
        <node concept="3iw6QE" id="26UovjNuoEO" role="1QScD9">
          <node concept="3izI60" id="26UovjNuoEP" role="3iAY4F">
            <node concept="3izPEI" id="26UovjNup8s" role="3izI61" />
          </node>
        </node>
        <node concept="1QScDb" id="51aMOhiYhVG" role="30czhm">
          <node concept="22cOCA" id="51aMOhiYiaQ" role="1QScD9">
            <node concept="22cOCE" id="51aMOhiYiqc" role="22cODC">
              <property role="TrG5h" value="bla" />
              <node concept="22msUl" id="51aMOhiYiIo" role="22cOCG" />
            </node>
            <node concept="22cOCE" id="51aMOhiYiO0" role="22cODC">
              <property role="TrG5h" value="bla2" />
              <node concept="30dDTi" id="51aMOhiYj4b" role="22cOCG">
                <node concept="30bXRB" id="51aMOhiYj4o" role="30dEs_">
                  <property role="30bXRw" value="2" />
                </node>
                <node concept="22msUl" id="51aMOhiYiVq" role="30dEsF" />
              </node>
            </node>
          </node>
          <node concept="3iBYfx" id="51aMOhiYhSz" role="30czhm">
            <node concept="30bXRB" id="51aMOhiYhSI" role="3iBYfI">
              <property role="30bXRw" value="1" />
            </node>
            <node concept="30bXRB" id="51aMOhiYhU6" role="3iBYfI">
              <property role="30bXRw" value="2" />
            </node>
          </node>
        </node>
      </node>
    </node>
    <node concept="1aga60" id="26UovjNqMcU" role="_iOnB">
      <property role="TrG5h" value="ah" />
      <node concept="1QScDb" id="26UovjNqMwz" role="1ahQXP">
        <node concept="22cOCA" id="26UovjNqMCg" role="1QScD9">
          <node concept="22cOCE" id="26UovjNqMDl" role="22cODC">
            <property role="TrG5h" value="bla" />
            <node concept="22msUl" id="26UovjNqMDm" role="22cOCG" />
          </node>
          <node concept="22cOCE" id="26UovjNqMIX" role="22cODC">
            <property role="TrG5h" value="bla2" />
            <node concept="30dDTi" id="26UovjNqMIY" role="22cOCG">
              <node concept="30bXRB" id="26UovjNqMIZ" role="30dEs_">
                <property role="30bXRw" value="2" />
              </node>
              <node concept="22msUl" id="26UovjNqMJ0" role="30dEsF" />
            </node>
          </node>
        </node>
        <node concept="2TO1xI" id="26UovjNqMrj" role="30czhm">
          <node concept="30bXRB" id="26UovjNqMru" role="2TO1xH">
            <property role="30bXRw" value="1" />
          </node>
          <node concept="30bXRB" id="26UovjNqMuX" role="2TO1xH">
            <property role="30bXRw" value="2" />
          </node>
        </node>
      </node>
    </node>
    <node concept="1aga60" id="26UovjNuqJA" role="_iOnB">
      <property role="TrG5h" value="ai" />
      <node concept="1QScDb" id="26UovjNuqZb" role="1ahQXP">
        <node concept="3vStjw" id="26UovjNur0H" role="1QScD9">
          <node concept="3vStjd" id="26UovjNur1P" role="3vSgwc">
            <ref role="3vStjc" node="2Y7ZIggfRit" resolve="hello" />
            <node concept="30bXRB" id="26UovjNur37" role="3vStj2">
              <property role="30bXRw" value="10" />
            </node>
          </node>
        </node>
        <node concept="2S399m" id="26UovjNuqY3" role="30czhm">
          <node concept="30bXRB" id="26UovjNuqY4" role="2S399l">
            <property role="30bXRw" value="10" />
          </node>
          <node concept="30bXRB" id="26UovjNuqY5" role="2S399l">
            <property role="30bXRw" value="20" />
          </node>
          <node concept="2Ss9cW" id="26UovjNuqY6" role="2S399n">
            <ref role="2Ss9cX" node="2Y7ZIggfRih" resolve="test2" />
          </node>
        </node>
      </node>
    </node>
    <node concept="_ixoA" id="54c1CflRXnL" role="_iOnB" />
  </node>
  <node concept="_iOnU" id="4vUQC5KfvxW">
    <property role="3GE5qa" value="blub" />
    <property role="TrG5h" value="bla" />
    <node concept="1aga60" id="3ns5_b5ki8m" role="_iOnB">
      <property role="TrG5h" value="foo" />
      <node concept="1ahQXy" id="3ns5_b5ki8G" role="1ahQWs">
        <property role="TrG5h" value="a" />
        <node concept="30bXR$" id="3ns5_b5kibx" role="3ix9CU" />
      </node>
      <node concept="30dDZf" id="3ns5_b5ki92" role="1ahQXP">
        <node concept="30bXRB" id="3ns5_b5ki9o" role="30dEs_">
          <property role="30bXRw" value="10" />
        </node>
        <node concept="1afdae" id="3ns5_b5ki8S" role="30dEsF">
          <ref role="1afue_" node="3ns5_b5ki8G" resolve="a" />
        </node>
      </node>
    </node>
    <node concept="1aga60" id="3ns5_b5kicA" role="_iOnB">
      <property role="TrG5h" value="bar" />
      <node concept="30dDTi" id="3ns5_b5kid$" role="1ahQXP">
        <node concept="30bXRB" id="3ns5_b5kidU" role="30dEs_">
          <property role="30bXRw" value="2" />
        </node>
        <node concept="1afdae" id="3ns5_b5kidq" role="30dEsF">
          <ref role="1afue_" node="3ns5_b5kicV" resolve="b" />
        </node>
      </node>
      <node concept="1ahQXy" id="3ns5_b5kicV" role="1ahQWs">
        <property role="TrG5h" value="b" />
        <node concept="30bXR$" id="3ns5_b5kidd" role="3ix9CU" />
      </node>
    </node>
    <node concept="1aga60" id="3ns5_b5kieX" role="_iOnB">
      <property role="TrG5h" value="test" />
      <node concept="3ix9CK" id="3ns5_b5kii2" role="1ahQXP">
        <node concept="3ix9CS" id="3ns5_b5kii3" role="3ix9CL">
          <property role="TrG5h" value="it" />
          <node concept="30bXR$" id="3ns5_b5kijn" role="3ix9CU" />
        </node>
        <node concept="30dDZf" id="3ns5_b5kilG" role="3ix9pP">
          <node concept="30bXRB" id="3ns5_b5kimF" role="30dEs_">
            <property role="30bXRw" value="10" />
          </node>
          <node concept="3ix4Yz" id="3ns5_b5kikz" role="30dEsF">
            <ref role="3ix4Yw" node="3ns5_b5kii3" resolve="it" />
          </node>
        </node>
      </node>
    </node>
  </node>
  <node concept="_iOnU" id="26UovjNwXPp">
    <property role="3GE5qa" value="blub" />
    <property role="TrG5h" value="EnumTest" />
    <node concept="5mgZ8" id="26UovjNwXPr" role="_iOnB">
      <property role="TrG5h" value="color" />
      <node concept="5mgYR" id="26UovjNwXPC" role="5mgYi">
        <property role="TrG5h" value="red" />
      </node>
      <node concept="5mgYR" id="26UovjNwXQo" role="5mgYi">
        <property role="TrG5h" value="blue" />
      </node>
      <node concept="5mgYR" id="26UovjNwXQv" role="5mgYi">
        <property role="TrG5h" value="green" />
      </node>
    </node>
    <node concept="1aga60" id="26UovjNwXQK" role="_iOnB">
      <property role="TrG5h" value="choose" />
      <node concept="5mhuz" id="26UovjNwXR1" role="1ahQXP">
        <ref role="5mhpJ" node="26UovjNwXPC" resolve="red" />
      </node>
    </node>
  </node>
  <node concept="_iOnU" id="26UovjNRMdQ">
    <property role="3GE5qa" value="blub" />
    <property role="TrG5h" value="numberTypeTest" />
    <node concept="1aga60" id="26UovjNRMdS" role="_iOnB">
      <property role="TrG5h" value="a" />
      <node concept="30bXRB" id="26UovjNRMeo" role="1ahQXP">
        <property role="30bXRw" value="1" />
      </node>
      <node concept="mLuIC" id="26UovjNRMea" role="2zM23F" />
    </node>
    <node concept="1aga60" id="26UovjNRMeT" role="_iOnB">
      <property role="TrG5h" value="b" />
      <node concept="30bXRB" id="26UovjNRMeU" role="1ahQXP">
        <property role="30bXRw" value="1" />
      </node>
      <node concept="30bXR$" id="26UovjNRMh3" role="2zM23F" />
    </node>
    <node concept="1aga60" id="26UovjNRMhE" role="_iOnB">
      <property role="TrG5h" value="c" />
      <node concept="30bXRB" id="26UovjNRMhF" role="1ahQXP">
        <property role="30bXRw" value="1" />
      </node>
      <node concept="30bXLL" id="26UovjNRMiN" role="2zM23F" />
    </node>
    <node concept="1aga60" id="26UovjNRMjp" role="_iOnB">
      <property role="TrG5h" value="d" />
      <node concept="mLuIC" id="26UovjNRMlz" role="2zM23F">
        <node concept="2gteS_" id="26UovjNRMm7" role="2gteVg">
          <property role="2gteVv" value="2" />
        </node>
      </node>
      <node concept="30bXRB" id="26UovjNRMpe" role="1ahQXP">
        <property role="30bXRw" value="2.12" />
      </node>
    </node>
    <node concept="1aga60" id="26UovjNRMpU" role="_iOnB">
      <property role="TrG5h" value="e" />
      <node concept="mLuIC" id="26UovjNRMpV" role="2zM23F">
        <node concept="2gteSW" id="26UovjNRMs5" role="2gteSx">
          <property role="2gteSQ" value="1" />
          <property role="2gteSD" value="100" />
        </node>
      </node>
      <node concept="30bXRB" id="26UovjNRMpX" role="1ahQXP">
        <property role="30bXRw" value="2" />
      </node>
    </node>
    <node concept="1aga60" id="26UovjNRMvz" role="_iOnB">
      <property role="TrG5h" value="f" />
      <node concept="mLuIC" id="26UovjNRMv$" role="2zM23F">
        <node concept="2gteSW" id="26UovjNRMv_" role="2gteSx">
          <property role="2gteSQ" value="1" />
          <property role="2gteSD" value="100" />
        </node>
        <node concept="2gteS_" id="26UovjNRMxd" role="2gteVg">
          <property role="2gteVv" value="2" />
        </node>
      </node>
      <node concept="30bXRB" id="26UovjNRMvA" role="1ahQXP">
        <property role="30bXRw" value="2.31" />
      </node>
    </node>
  </node>
</model>

